Iteration	UnnormalizedPosteriorDensity	SubstitutionModelDensity	DLRModelDensity	DuplicationRate	LossRate	EdgeRateMean	EdgeRateCV	GuestTree
0	-989.5184872952738	-939.7535812613988	-49.76490603387488	2.6676666666666664	2.6676666666666664	0.5	1.0	(((G0_0,(G30_2,(G31_3,G32_4))),(((G10_4,G9_3),(G6_3,G7_4)),(G19_3,G20_4))),(((G14_1,(G15_2,G24_2)),((G1_1,G2_1),G4_1)),((G16_3,G17_4),(G25_3,G26_4))));
1	-991.9253034444843	-942.5803520278438	-49.344951416640434	2.6676666666666664	2.6676666666666664	0.5	1.0	(((G0_0,(G30_2,(G31_3,G32_4))),(((G10_4,G9_3),(G6_3,G7_4)),(G19_3,G20_4))),(((G14_1,(G15_2,G24_2)),((G1_1,G2_1),G4_1)),((G16_3,G17_4),(G25_3,G26_4))));
2	-992.1741519705365	-942.5803520278438	-49.59379994269276	2.6676666666666664	2.2905502213347697	0.5	1.0	(((G0_0,(G30_2,(G31_3,G32_4))),(((G10_4,G9_3),(G6_3,G7_4)),(G19_3,G20_4))),(((G14_1,(G15_2,G24_2)),((G1_1,G2_1),G4_1)),((G16_3,G17_4),(G25_3,G26_4))));
3	-992.1741519705365	-942.5803520278438	-49.59379994269276	2.6676666666666664	2.2905502213347697	0.5	1.0	(((G0_0,(G30_2,(G31_3,G32_4))),(((G10_4,G9_3),(G6_3,G7_4)),(G19_3,G20_4))),(((G14_1,(G15_2,G24_2)),((G1_1,G2_1),G4_1)),((G16_3,G17_4),(G25_3,G26_4))));
4	-992.1741519705365	-942.5803520278438	-49.59379994269276	2.6676666666666664	2.2905502213347697	0.5	1.0	(((G0_0,(G30_2,(G31_3,G32_4))),(((G10_4,G9_3),(G6_3,G7_4)),(G19_3,G20_4))),(((G14_1,(G15_2,G24_2)),((G1_1,G2_1),G4_1)),((G16_3,G17_4),(G25_3,G26_4))));
5	-992.1741519705365	-942.5803520278438	-49.59379994269276	2.6676666666666664	2.2905502213347697	0.5	1.0	(((G0_0,(G30_2,(G31_3,G32_4))),(((G10_4,G9_3),(G6_3,G7_4)),(G19_3,G20_4))),(((G14_1,(G15_2,G24_2)),((G1_1,G2_1),G4_1)),((G16_3,G17_4),(G25_3,G26_4))));
6	-988.6674570884447	-942.5803520278438	-46.08710506060089	1.6748958349677934	2.2905502213347697	0.5	1.0	(((G0_0,(G30_2,(G31_3,G32_4))),(((G10_4,G9_3),(G6_3,G7_4)),(G19_3,G20_4))),(((G14_1,(G15_2,G24_2)),((G1_1,G2_1),G4_1)),((G16_3,G17_4),(G25_3,G26_4))));
7	-988.6674570884447	-942.5803520278438	-46.08710506060089	1.6748958349677934	2.2905502213347697	0.5	1.0	(((G0_0,(G30_2,(G31_3,G32_4))),(((G10_4,G9_3),(G6_3,G7_4)),(G19_3,G20_4))),(((G14_1,(G15_2,G24_2)),((G1_1,G2_1),G4_1)),((G16_3,G17_4),(G25_3,G26_4))));
8	-988.1466170498795	-941.3595628550479	-46.787054194831605	1.6748958349677934	2.2905502213347697	0.5	1.0	(((G0_0,(G30_2,(G31_3,G32_4))),(((G10_4,G9_3),(G6_3,G7_4)),(G19_3,G20_4))),(((G14_1,(G15_2,G24_2)),((G1_1,G2_1),G4_1)),((G16_3,G17_4),(G25_3,G26_4))));
9	-987.4485390742922	-939.4103275284945	-48.038211545797665	1.6748958349677934	2.2905502213347697	0.5369021341468021	1.0	(((G0_0,(G30_2,(G31_3,G32_4))),(((G10_4,G9_3),(G6_3,G7_4)),(G19_3,G20_4))),(((G14_1,(G15_2,G24_2)),((G1_1,G2_1),G4_1)),((G16_3,G17_4),(G25_3,G26_4))));
10	-987.4485390742922	-939.4103275284945	-48.038211545797665	1.6748958349677934	2.2905502213347697	0.5369021341468021	1.0	(((G0_0,(G30_2,(G31_3,G32_4))),(((G10_4,G9_3),(G6_3,G7_4)),(G19_3,G20_4))),(((G14_1,(G15_2,G24_2)),((G1_1,G2_1),G4_1)),((G16_3,G17_4),(G25_3,G26_4))));
11	-987.4522114669928	-939.3426746868679	-48.10953678012487	1.6748958349677934	2.2905502213347697	0.5369021341468021	1.0	(((G0_0,(G30_2,(G31_3,G32_4))),(((G10_4,G9_3),(G6_3,G7_4)),(G19_3,G20_4))),(((G14_1,(G15_2,G24_2)),((G1_1,G2_1),G4_1)),((G16_3,G17_4),(G25_3,G26_4))));
12	-987.4522114669928	-939.3426746868679	-48.10953678012487	1.6748958349677934	2.2905502213347697	0.5369021341468021	1.0	(((G0_0,(G30_2,(G31_3,G32_4))),(((G10_4,G9_3),(G6_3,G7_4)),(G19_3,G20_4))),(((G14_1,(G15_2,G24_2)),((G1_1,G2_1),G4_1)),((G16_3,G17_4),(G25_3,G26_4))));
13	-987.4522114669928	-939.3426746868679	-48.10953678012487	1.6748958349677934	2.2905502213347697	0.5369021341468021	1.0	(((G0_0,(G30_2,(G31_3,G32_4))),(((G10_4,G9_3),(G6_3,G7_4)),(G19_3,G20_4))),(((G14_1,(G15_2,G24_2)),((G1_1,G2_1),G4_1)),((G16_3,G17_4),(G25_3,G26_4))));
14	-987.4522114669928	-939.3426746868679	-48.10953678012487	1.6748958349677934	2.2905502213347697	0.5369021341468021	1.0	(((G0_0,(G30_2,(G31_3,G32_4))),(((G10_4,G9_3),(G6_3,G7_4)),(G19_3,G20_4))),(((G14_1,(G15_2,G24_2)),((G1_1,G2_1),G4_1)),((G16_3,G17_4),(G25_3,G26_4))));
15	-983.0724592169006	-935.6088589224966	-47.463600294404074	1.6748958349677934	2.2905502213347697	0.5369021341468021	1.0	(((G0_0,(G30_2,(G31_3,G32_4))),(((G10_4,G9_3),(G6_3,G7_4)),(G19_3,G20_4))),(((G14_1,(G15_2,G24_2)),((G1_1,G2_1),G4_1)),((G16_3,G17_4),(G25_3,G26_4))));
16	-983.0724592169006	-935.6088589224966	-47.463600294404074	1.6748958349677934	2.2905502213347697	0.5369021341468021	1.0	(((G0_0,(G30_2,(G31_3,G32_4))),(((G10_4,G9_3),(G6_3,G7_4)),(G19_3,G20_4))),(((G14_1,(G15_2,G24_2)),((G1_1,G2_1),G4_1)),((G16_3,G17_4),(G25_3,G26_4))));
17	-983.0724592169006	-935.6088589224966	-47.463600294404074	1.6748958349677934	2.2905502213347697	0.5369021341468021	1.0	(((G0_0,(G30_2,(G31_3,G32_4))),(((G10_4,G9_3),(G6_3,G7_4)),(G19_3,G20_4))),(((G14_1,(G15_2,G24_2)),((G1_1,G2_1),G4_1)),((G16_3,G17_4),(G25_3,G26_4))));
18	-983.0724592169006	-935.6088589224966	-47.463600294404074	1.6748958349677934	2.2905502213347697	0.5369021341468021	1.0	(((G0_0,(G30_2,(G31_3,G32_4))),(((G10_4,G9_3),(G6_3,G7_4)),(G19_3,G20_4))),(((G14_1,(G15_2,G24_2)),((G1_1,G2_1),G4_1)),((G16_3,G17_4),(G25_3,G26_4))));
19	-983.0724592169006	-935.6088589224966	-47.463600294404074	1.6748958349677934	2.2905502213347697	0.5369021341468021	1.0	(((G0_0,(G30_2,(G31_3,G32_4))),(((G10_4,G9_3),(G6_3,G7_4)),(G19_3,G20_4))),(((G14_1,(G15_2,G24_2)),((G1_1,G2_1),G4_1)),((G16_3,G17_4),(G25_3,G26_4))));
20	-981.7617549111892	-934.529867981854	-47.23188692933527	1.6748958349677934	2.2905502213347697	0.5369021341468021	1.0	(((G0_0,(G30_2,(G31_3,G32_4))),(((G10_4,G9_3),(G6_3,G7_4)),(G19_3,G20_4))),(((G14_1,(G15_2,G24_2)),((G1_1,G2_1),G4_1)),((G16_3,G17_4),(G25_3,G26_4))));
21	-981.7617549111892	-934.529867981854	-47.23188692933527	1.6748958349677934	2.2905502213347697	0.5369021341468021	1.0	(((G0_0,(G30_2,(G31_3,G32_4))),(((G10_4,G9_3),(G6_3,G7_4)),(G19_3,G20_4))),(((G14_1,(G15_2,G24_2)),((G1_1,G2_1),G4_1)),((G16_3,G17_4),(G25_3,G26_4))));
22	-982.9662862079145	-934.529867981854	-48.43641822606059	1.6748958349677934	2.2905502213347697	0.6014319269072459	1.0	(((G0_0,(G30_2,(G31_3,G32_4))),(((G10_4,G9_3),(G6_3,G7_4)),(G19_3,G20_4))),(((G14_1,(G15_2,G24_2)),((G1_1,G2_1),G4_1)),((G16_3,G17_4),(G25_3,G26_4))));
23	-982.9662862079145	-934.529867981854	-48.43641822606059	1.6748958349677934	2.2905502213347697	0.6014319269072459	1.0	(((G0_0,(G30_2,(G31_3,G32_4))),(((G10_4,G9_3),(G6_3,G7_4)),(G19_3,G20_4))),(((G14_1,(G15_2,G24_2)),((G1_1,G2_1),G4_1)),((G16_3,G17_4),(G25_3,G26_4))));
24	-982.9662862079145	-934.529867981854	-48.43641822606059	1.6748958349677934	2.2905502213347697	0.6014319269072459	1.0	(((G0_0,(G30_2,(G31_3,G32_4))),(((G10_4,G9_3),(G6_3,G7_4)),(G19_3,G20_4))),(((G14_1,(G15_2,G24_2)),((G1_1,G2_1),G4_1)),((G16_3,G17_4),(G25_3,G26_4))));
25	-982.9662862079145	-934.529867981854	-48.43641822606059	1.6748958349677934	2.2905502213347697	0.6014319269072459	1.0	(((G0_0,(G30_2,(G31_3,G32_4))),(((G10_4,G9_3),(G6_3,G7_4)),(G19_3,G20_4))),(((G14_1,(G15_2,G24_2)),((G1_1,G2_1),G4_1)),((G16_3,G17_4),(G25_3,G26_4))));
26	-982.9148396047442	-934.090019687093	-48.82481991765117	1.6748958349677934	2.2905502213347697	0.6014319269072459	1.0	(((G0_0,(G30_2,(G31_3,G32_4))),(((G10_4,G9_3),(G6_3,G7_4)),(G19_3,G20_4))),(((G14_1,(G15_2,G24_2)),((G1_1,G2_1),G4_1)),((G16_3,G17_4),(G25_3,G26_4))));
27	-980.4756602649697	-932.6785092053003	-47.797151059669396	1.6748958349677934	1.2166240505378862	0.6014319269072459	0.8314907838765633	(((G0_0,(G30_2,(G31_3,G32_4))),(((G10_4,G9_3),(G6_3,G7_4)),(G19_3,G20_4))),(((G14_1,(G15_2,G24_2)),((G1_1,G2_1),G4_1)),((G16_3,G17_4),(G25_3,G26_4))));
28	-979.1942874116015	-932.5570585451948	-46.63722886640678	1.6748958349677934	1.6267236824390992	0.6014319269072459	0.8314907838765633	(((G0_0,(G30_2,(G31_3,G32_4))),(((G10_4,G9_3),(G6_3,G7_4)),(G19_3,G20_4))),(((G14_1,(G15_2,G24_2)),((G1_1,G2_1),G4_1)),((G16_3,G17_4),(G25_3,G26_4))));
29	-978.9023613272691	-932.2752913680473	-46.627069959221814	1.6748958349677934	1.6267236824390992	0.6014319269072459	0.8314907838765633	(((G0_0,(G30_2,(G31_3,G32_4))),(((G10_4,G9_3),(G6_3,G7_4)),(G19_3,G20_4))),(((G14_1,(G15_2,G24_2)),((G1_1,G2_1),G4_1)),((G16_3,G17_4),(G25_3,G26_4))));
30	-978.9023613272691	-932.2752913680473	-46.627069959221814	1.6748958349677934	1.6267236824390992	0.6014319269072459	0.8314907838765633	(((G0_0,(G30_2,(G31_3,G32_4))),(((G10_4,G9_3),(G6_3,G7_4)),(G19_3,G20_4))),(((G14_1,(G15_2,G24_2)),((G1_1,G2_1),G4_1)),((G16_3,G17_4),(G25_3,G26_4))));
31	-977.7653367920726	-931.2618269524114	-46.50350983966124	1.6748958349677934	1.6267236824390992	0.6014319269072459	0.8314907838765633	(((G0_0,(G30_2,(G31_3,G32_4))),(((G10_4,G9_3),(G6_3,G7_4)),(G19_3,G20_4))),(((G14_1,(G15_2,G24_2)),((G1_1,G2_1),G4_1)),((G16_3,G17_4),(G25_3,G26_4))));
32	-977.7653367920726	-931.2618269524114	-46.50350983966124	1.6748958349677934	1.6267236824390992	0.6014319269072459	0.8314907838765633	(((G0_0,(G30_2,(G31_3,G32_4))),(((G10_4,G9_3),(G6_3,G7_4)),(G19_3,G20_4))),(((G14_1,(G15_2,G24_2)),((G1_1,G2_1),G4_1)),((G16_3,G17_4),(G25_3,G26_4))));
33	-977.6829587153019	-931.1898032937179	-46.49315542158398	1.6748958349677934	1.6267236824390992	0.6014319269072459	0.8314907838765633	(((G0_0,(G30_2,(G31_3,G32_4))),(((G10_4,G9_3),(G6_3,G7_4)),(G19_3,G20_4))),(((G14_1,(G15_2,G24_2)),((G1_1,G2_1),G4_1)),((G16_3,G17_4),(G25_3,G26_4))));
34	-977.6829587153019	-931.1898032937179	-46.49315542158398	1.6748958349677934	1.6267236824390992	0.6014319269072459	0.8314907838765633	(((G0_0,(G30_2,(G31_3,G32_4))),(((G10_4,G9_3),(G6_3,G7_4)),(G19_3,G20_4))),(((G14_1,(G15_2,G24_2)),((G1_1,G2_1),G4_1)),((G16_3,G17_4),(G25_3,G26_4))));
35	-977.6829587153019	-931.1898032937179	-46.49315542158398	1.6748958349677934	1.6267236824390992	0.6014319269072459	0.8314907838765633	(((G0_0,(G30_2,(G31_3,G32_4))),(((G10_4,G9_3),(G6_3,G7_4)),(G19_3,G20_4))),(((G14_1,(G15_2,G24_2)),((G1_1,G2_1),G4_1)),((G16_3,G17_4),(G25_3,G26_4))));
36	-979.9276246248031	-933.6240462573114	-46.303578367491696	1.6748958349677934	1.6267236824390992	0.6014319269072459	0.8314907838765633	(((G0_0,(G30_2,(G31_3,G32_4))),(((G10_4,G9_3),(G6_3,G7_4)),(G19_3,G20_4))),(((G14_1,(G15_2,G24_2)),((G1_1,G2_1),G4_1)),((G16_3,G17_4),(G25_3,G26_4))));
37	-979.9276246248031	-933.6240462573114	-46.303578367491696	1.6748958349677934	1.6267236824390992	0.6014319269072459	0.8314907838765633	(((G0_0,(G30_2,(G31_3,G32_4))),(((G10_4,G9_3),(G6_3,G7_4)),(G19_3,G20_4))),(((G14_1,(G15_2,G24_2)),((G1_1,G2_1),G4_1)),((G16_3,G17_4),(G25_3,G26_4))));
38	-980.750848094084	-933.6240462573114	-47.12680183677251	1.6748958349677934	1.6267236824390992	0.628534314681906	0.8314907838765633	(((G0_0,(G30_2,(G31_3,G32_4))),(((G10_4,G9_3),(G6_3,G7_4)),(G19_3,G20_4))),(((G14_1,(G15_2,G24_2)),((G1_1,G2_1),G4_1)),((G16_3,G17_4),(G25_3,G26_4))));
39	-980.750848094084	-933.6240462573114	-47.12680183677251	1.6748958349677934	1.6267236824390992	0.628534314681906	0.8314907838765633	(((G0_0,(G30_2,(G31_3,G32_4))),(((G10_4,G9_3),(G6_3,G7_4)),(G19_3,G20_4))),(((G14_1,(G15_2,G24_2)),((G1_1,G2_1),G4_1)),((G16_3,G17_4),(G25_3,G26_4))));
40	-979.0529549115407	-933.8487999327244	-45.20415497881628	1.6748958349677934	1.6267236824390992	0.5444083371501472	0.8314907838765633	(((G0_0,(G30_2,(G31_3,G32_4))),(((G10_4,G9_3),(G6_3,G7_4)),(G19_3,G20_4))),(((G14_1,(G15_2,G24_2)),((G1_1,G2_1),G4_1)),((G16_3,G17_4),(G25_3,G26_4))));
41	-979.7619883948429	-934.7412629978711	-45.02072539697174	1.6748958349677934	1.6267236824390992	0.5444083371501472	0.8314907838765633	(((G0_0,(G30_2,(G31_3,G32_4))),(((G10_4,G9_3),(G6_3,G7_4)),(G19_3,G20_4))),(((G14_1,(G15_2,G24_2)),((G1_1,G2_1),G4_1)),((G16_3,G17_4),(G25_3,G26_4))));
42	-980.147812537533	-934.7412629978711	-45.406549539661945	1.6748958349677934	1.6267236824390992	0.5444083371501472	0.921569479391641	(((G0_0,(G30_2,(G31_3,G32_4))),(((G10_4,G9_3),(G6_3,G7_4)),(G19_3,G20_4))),(((G14_1,(G15_2,G24_2)),((G1_1,G2_1),G4_1)),((G16_3,G17_4),(G25_3,G26_4))));
43	-978.84002462638	-933.1169586377223	-45.72306598865774	1.6748958349677934	1.6267236824390992	0.5444083371501472	0.921569479391641	(((G0_0,(G30_2,(G31_3,G32_4))),(((G10_4,G9_3),(G6_3,G7_4)),(G19_3,G20_4))),(((G14_1,(G15_2,G24_2)),((G1_1,G2_1),G4_1)),((G16_3,G17_4),(G25_3,G26_4))));
44	-978.84002462638	-933.1169586377223	-45.72306598865774	1.6748958349677934	1.6267236824390992	0.5444083371501472	0.921569479391641	(((G0_0,(G30_2,(G31_3,G32_4))),(((G10_4,G9_3),(G6_3,G7_4)),(G19_3,G20_4))),(((G14_1,(G15_2,G24_2)),((G1_1,G2_1),G4_1)),((G16_3,G17_4),(G25_3,G26_4))));
45	-978.5904471437403	-932.5633343287054	-46.027112815034926	1.6748958349677934	1.6267236824390992	0.5444083371501472	0.921569479391641	(((G0_0,(G30_2,(G31_3,G32_4))),(((G10_4,G9_3),(G6_3,G7_4)),(G19_3,G20_4))),(((G14_1,(G15_2,G24_2)),((G1_1,G2_1),G4_1)),((G16_3,G17_4),(G25_3,G26_4))));
46	-978.2919877896944	-932.0049662047361	-46.28702158495829	1.6748958349677934	1.6267236824390992	0.5444083371501472	0.921569479391641	(((G0_0,(G30_2,(G31_3,G32_4))),(((G10_4,G9_3),(G6_3,G7_4)),(G19_3,G20_4))),(((G14_1,(G15_2,G24_2)),((G1_1,G2_1),G4_1)),((G16_3,G17_4),(G25_3,G26_4))));
47	-974.9289756915863	-929.6435054798328	-45.28547021175346	1.6748958349677934	1.6267236824390992	0.45524077407988495	0.921569479391641	(((G0_0,(G30_2,(G31_3,G32_4))),(((G10_4,G9_3),(G6_3,G7_4)),(G19_3,G20_4))),(((G14_1,(G15_2,G24_2)),((G1_1,G2_1),G4_1)),((G16_3,G17_4),(G25_3,G26_4))));
48	-972.8056311998137	-927.2962063788763	-45.50942482093736	1.6748958349677934	1.6267236824390992	0.45524077407988495	0.921569479391641	(((G0_0,(G30_2,(G31_3,G32_4))),(((G10_4,G9_3),(G6_3,G7_4)),(G19_3,G20_4))),(((G14_1,(G15_2,G24_2)),((G1_1,G2_1),G4_1)),((G16_3,G17_4),(G25_3,G26_4))));
49	-972.8056311998137	-927.2962063788763	-45.50942482093736	1.6748958349677934	1.6267236824390992	0.45524077407988495	0.921569479391641	(((G0_0,(G30_2,(G31_3,G32_4))),(((G10_4,G9_3),(G6_3,G7_4)),(G19_3,G20_4))),(((G14_1,(G15_2,G24_2)),((G1_1,G2_1),G4_1)),((G16_3,G17_4),(G25_3,G26_4))));
50	-972.8847297874294	-927.3216916066272	-45.56303818080218	1.6748958349677934	1.6267236824390992	0.45524077407988495	0.921569479391641	(((G0_0,(G30_2,(G31_3,G32_4))),(((G10_4,G9_3),(G6_3,G7_4)),(G19_3,G20_4))),(((G14_1,(G15_2,G24_2)),((G1_1,G2_1),G4_1)),((G16_3,G17_4),(G25_3,G26_4))));
51	-972.8847297874294	-927.3216916066272	-45.56303818080218	1.6748958349677934	1.6267236824390992	0.45524077407988495	0.921569479391641	(((G0_0,(G30_2,(G31_3,G32_4))),(((G10_4,G9_3),(G6_3,G7_4)),(G19_3,G20_4))),(((G14_1,(G15_2,G24_2)),((G1_1,G2_1),G4_1)),((G16_3,G17_4),(G25_3,G26_4))));
52	-972.8847297874294	-927.3216916066272	-45.56303818080218	1.6748958349677934	1.6267236824390992	0.45524077407988495	0.921569479391641	(((G0_0,(G30_2,(G31_3,G32_4))),(((G10_4,G9_3),(G6_3,G7_4)),(G19_3,G20_4))),(((G14_1,(G15_2,G24_2)),((G1_1,G2_1),G4_1)),((G16_3,G17_4),(G25_3,G26_4))));
53	-972.8847297874294	-927.3216916066272	-45.56303818080218	1.6748958349677934	1.6267236824390992	0.45524077407988495	0.921569479391641	(((G0_0,(G30_2,(G31_3,G32_4))),(((G10_4,G9_3),(G6_3,G7_4)),(G19_3,G20_4))),(((G14_1,(G15_2,G24_2)),((G1_1,G2_1),G4_1)),((G16_3,G17_4),(G25_3,G26_4))));
54	-972.8847297874294	-927.3216916066272	-45.56303818080218	1.6748958349677934	1.6267236824390992	0.45524077407988495	0.921569479391641	(((G0_0,(G30_2,(G31_3,G32_4))),(((G10_4,G9_3),(G6_3,G7_4)),(G19_3,G20_4))),(((G14_1,(G15_2,G24_2)),((G1_1,G2_1),G4_1)),((G16_3,G17_4),(G25_3,G26_4))));
55	-973.4001540845545	-928.3403011123339	-45.05985297222061	1.6748958349677934	1.6267236824390992	0.45524077407988495	0.921569479391641	(((G0_0,(G30_2,(G31_3,G32_4))),(((G10_4,G9_3),(G6_3,G7_4)),(G19_3,G20_4))),(((G14_1,((G1_1,G2_1),G4_1)),(G15_2,G24_2)),((G16_3,G17_4),(G25_3,G26_4))));
56	-973.4001540845545	-928.3403011123339	-45.05985297222061	1.6748958349677934	1.6267236824390992	0.45524077407988495	0.921569479391641	(((G0_0,(G30_2,(G31_3,G32_4))),(((G10_4,G9_3),(G6_3,G7_4)),(G19_3,G20_4))),(((G14_1,((G1_1,G2_1),G4_1)),(G15_2,G24_2)),((G16_3,G17_4),(G25_3,G26_4))));
57	-973.4001540845545	-928.3403011123339	-45.05985297222061	1.6748958349677934	1.6267236824390992	0.45524077407988495	0.921569479391641	(((G0_0,(G30_2,(G31_3,G32_4))),(((G10_4,G9_3),(G6_3,G7_4)),(G19_3,G20_4))),(((G14_1,((G1_1,G2_1),G4_1)),(G15_2,G24_2)),((G16_3,G17_4),(G25_3,G26_4))));
58	-972.3901832202688	-928.3403011123339	-44.04988210793484	1.6748958349677934	1.6267236824390992	0.45524077407988495	0.7820576713300943	(((G0_0,(G30_2,(G31_3,G32_4))),(((G10_4,G9_3),(G6_3,G7_4)),(G19_3,G20_4))),(((G14_1,((G1_1,G2_1),G4_1)),(G15_2,G24_2)),((G16_3,G17_4),(G25_3,G26_4))));
59	-972.3901832202688	-928.3403011123339	-44.04988210793484	1.6748958349677934	1.6267236824390992	0.45524077407988495	0.7820576713300943	(((G0_0,(G30_2,(G31_3,G32_4))),(((G10_4,G9_3),(G6_3,G7_4)),(G19_3,G20_4))),(((G14_1,((G1_1,G2_1),G4_1)),(G15_2,G24_2)),((G16_3,G17_4),(G25_3,G26_4))));
60	-971.7813618666368	-926.8632672678283	-44.91809459880848	1.6748958349677934	1.6267236824390992	0.45524077407988495	0.7820576713300943	(((G0_0,(G30_2,(G31_3,G32_4))),(((G10_4,G9_3),(G6_3,G7_4)),(G19_3,G20_4))),(((G14_1,((G1_1,G2_1),G4_1)),(G15_2,G24_2)),((G16_3,G17_4),(G25_3,G26_4))));
61	-969.5464794131932	-923.9295590979679	-45.61692031522535	1.6748958349677934	1.6267236824390992	0.45524077407988495	0.7820576713300943	(((G0_0,(G30_2,(G31_3,G32_4))),(((G10_4,G9_3),(G6_3,G7_4)),(G19_3,G20_4))),(((G14_1,((G1_1,G2_1),G4_1)),(G15_2,G24_2)),((G16_3,G17_4),(G25_3,G26_4))));
62	-969.5464794131932	-923.9295590979679	-45.61692031522535	1.6748958349677934	1.6267236824390992	0.45524077407988495	0.7820576713300943	(((G0_0,(G30_2,(G31_3,G32_4))),(((G10_4,G9_3),(G6_3,G7_4)),(G19_3,G20_4))),(((G14_1,((G1_1,G2_1),G4_1)),(G15_2,G24_2)),((G16_3,G17_4),(G25_3,G26_4))));
63	-969.5464794131932	-923.9295590979679	-45.61692031522535	1.6748958349677934	1.6267236824390992	0.45524077407988495	0.7820576713300943	(((G0_0,(G30_2,(G31_3,G32_4))),(((G10_4,G9_3),(G6_3,G7_4)),(G19_3,G20_4))),(((G14_1,((G1_1,G2_1),G4_1)),(G15_2,G24_2)),((G16_3,G17_4),(G25_3,G26_4))));
64	-969.5772316356015	-923.8243334025994	-45.752898233002	1.6748958349677934	1.6267236824390992	0.45524077407988495	0.7820576713300943	(((G0_0,(G30_2,(G31_3,G32_4))),(((G10_4,G9_3),(G6_3,G7_4)),(G19_3,G20_4))),(((G14_1,((G1_1,G2_1),G4_1)),(G15_2,G24_2)),((G16_3,G17_4),(G25_3,G26_4))));
65	-969.5772316356015	-923.8243334025994	-45.752898233002	1.6748958349677934	1.6267236824390992	0.45524077407988495	0.7820576713300943	(((G0_0,(G30_2,(G31_3,G32_4))),(((G10_4,G9_3),(G6_3,G7_4)),(G19_3,G20_4))),(((G14_1,((G1_1,G2_1),G4_1)),(G15_2,G24_2)),((G16_3,G17_4),(G25_3,G26_4))));
66	-969.5772316356015	-923.8243334025994	-45.752898233002	1.6748958349677934	1.6267236824390992	0.45524077407988495	0.7820576713300943	(((G0_0,(G30_2,(G31_3,G32_4))),(((G10_4,G9_3),(G6_3,G7_4)),(G19_3,G20_4))),(((G14_1,((G1_1,G2_1),G4_1)),(G15_2,G24_2)),((G16_3,G17_4),(G25_3,G26_4))));
67	-969.5772316356015	-923.8243334025994	-45.752898233002	1.6748958349677934	1.6267236824390992	0.45524077407988495	0.7820576713300943	(((G0_0,(G30_2,(G31_3,G32_4))),(((G10_4,G9_3),(G6_3,G7_4)),(G19_3,G20_4))),(((G14_1,((G1_1,G2_1),G4_1)),(G15_2,G24_2)),((G16_3,G17_4),(G25_3,G26_4))));
68	-969.5772316356015	-923.8243334025994	-45.752898233002	1.6748958349677934	1.6267236824390992	0.45524077407988495	0.7820576713300943	(((G0_0,(G30_2,(G31_3,G32_4))),(((G10_4,G9_3),(G6_3,G7_4)),(G19_3,G20_4))),(((G14_1,((G1_1,G2_1),G4_1)),(G15_2,G24_2)),((G16_3,G17_4),(G25_3,G26_4))));
69	-969.1111611443176	-924.0652024115645	-45.04595873275308	1.6748958349677934	1.6267236824390992	0.45524077407988495	0.7820576713300943	(((G0_0,(G30_2,(G31_3,G32_4))),(((G10_4,G9_3),(G6_3,G7_4)),(G19_3,G20_4))),(((G14_1,((G1_1,G2_1),G4_1)),(G15_2,G24_2)),((G16_3,G17_4),(G25_3,G26_4))));
70	-969.1111611443176	-924.0652024115645	-45.04595873275308	1.6748958349677934	1.6267236824390992	0.45524077407988495	0.7820576713300943	(((G0_0,(G30_2,(G31_3,G32_4))),(((G10_4,G9_3),(G6_3,G7_4)),(G19_3,G20_4))),(((G14_1,((G1_1,G2_1),G4_1)),(G15_2,G24_2)),((G16_3,G17_4),(G25_3,G26_4))));
71	-969.1111611443176	-924.0652024115645	-45.04595873275308	1.6748958349677934	1.6267236824390992	0.45524077407988495	0.7820576713300943	(((G0_0,(G30_2,(G31_3,G32_4))),(((G10_4,G9_3),(G6_3,G7_4)),(G19_3,G20_4))),(((G14_1,((G1_1,G2_1),G4_1)),(G15_2,G24_2)),((G16_3,G17_4),(G25_3,G26_4))));
72	-969.1111611443176	-924.0652024115645	-45.04595873275308	1.6748958349677934	1.6267236824390992	0.45524077407988495	0.7820576713300943	(((G0_0,(G30_2,(G31_3,G32_4))),(((G10_4,G9_3),(G6_3,G7_4)),(G19_3,G20_4))),(((G14_1,((G1_1,G2_1),G4_1)),(G15_2,G24_2)),((G16_3,G17_4),(G25_3,G26_4))));
73	-969.1111611443176	-924.0652024115645	-45.04595873275308	1.6748958349677934	1.6267236824390992	0.45524077407988495	0.7820576713300943	(((G0_0,(G30_2,(G31_3,G32_4))),(((G10_4,G9_3),(G6_3,G7_4)),(G19_3,G20_4))),(((G14_1,((G1_1,G2_1),G4_1)),(G15_2,G24_2)),((G16_3,G17_4),(G25_3,G26_4))));
74	-965.6018371857223	-919.54965606764	-46.05218111808231	1.6748958349677934	1.6267236824390992	0.45524077407988495	0.7820576713300943	(((G0_0,(G30_2,(G31_3,G32_4))),(((G10_4,G9_3),(G6_3,G7_4)),(G19_3,G20_4))),(((G14_1,((G1_1,G2_1),G4_1)),(G15_2,G24_2)),((G16_3,G17_4),(G25_3,G26_4))));
75	-965.6018371857223	-919.54965606764	-46.05218111808231	1.6748958349677934	1.6267236824390992	0.45524077407988495	0.7820576713300943	(((G0_0,(G30_2,(G31_3,G32_4))),(((G10_4,G9_3),(G6_3,G7_4)),(G19_3,G20_4))),(((G14_1,((G1_1,G2_1),G4_1)),(G15_2,G24_2)),((G16_3,G17_4),(G25_3,G26_4))));
76	-965.6769960167028	-919.54965606764	-46.12733994906286	1.6966999163119179	1.6267236824390992	0.45524077407988495	0.7820576713300943	(((G0_0,(G30_2,(G31_3,G32_4))),(((G10_4,G9_3),(G6_3,G7_4)),(G19_3,G20_4))),(((G14_1,((G1_1,G2_1),G4_1)),(G15_2,G24_2)),((G16_3,G17_4),(G25_3,G26_4))));
77	-965.6769960167028	-919.54965606764	-46.12733994906286	1.6966999163119179	1.6267236824390992	0.45524077407988495	0.7820576713300943	(((G0_0,(G30_2,(G31_3,G32_4))),(((G10_4,G9_3),(G6_3,G7_4)),(G19_3,G20_4))),(((G14_1,((G1_1,G2_1),G4_1)),(G15_2,G24_2)),((G16_3,G17_4),(G25_3,G26_4))));
78	-965.6769960167028	-919.54965606764	-46.12733994906286	1.6966999163119179	1.6267236824390992	0.45524077407988495	0.7820576713300943	(((G0_0,(G30_2,(G31_3,G32_4))),(((G10_4,G9_3),(G6_3,G7_4)),(G19_3,G20_4))),(((G14_1,((G1_1,G2_1),G4_1)),(G15_2,G24_2)),((G16_3,G17_4),(G25_3,G26_4))));
79	-964.4146956617442	-918.5002628881772	-45.91443277356706	1.6966999163119179	1.6267236824390992	0.45524077407988495	0.7820576713300943	(((G0_0,(G30_2,(G31_3,G32_4))),(((G10_4,G9_3),(G6_3,G7_4)),(G19_3,G20_4))),(((G14_1,(G15_2,G24_2)),((G1_1,G2_1),G4_1)),((G16_3,G17_4),(G25_3,G26_4))));
80	-964.4146956617442	-918.5002628881772	-45.91443277356706	1.6966999163119179	1.6267236824390992	0.45524077407988495	0.7820576713300943	(((G0_0,(G30_2,(G31_3,G32_4))),(((G10_4,G9_3),(G6_3,G7_4)),(G19_3,G20_4))),(((G14_1,(G15_2,G24_2)),((G1_1,G2_1),G4_1)),((G16_3,G17_4),(G25_3,G26_4))));
81	-963.2214879312894	-918.5002628881772	-44.72122504311222	1.0811823541549628	1.6267236824390992	0.45524077407988495	0.7820576713300943	(((G0_0,(G30_2,(G31_3,G32_4))),(((G10_4,G9_3),(G6_3,G7_4)),(G19_3,G20_4))),(((G14_1,(G15_2,G24_2)),((G1_1,G2_1),G4_1)),((G16_3,G17_4),(G25_3,G26_4))));
82	-963.6244229646379	-918.8428484591725	-44.781574505465386	1.0811823541549628	1.6267236824390992	0.45524077407988495	0.7820576713300943	(((G0_0,(G30_2,(G31_3,G32_4))),(((G10_4,G9_3),(G6_3,G7_4)),(G19_3,G20_4))),(((G14_1,(G15_2,G24_2)),((G1_1,G2_1),G4_1)),((G16_3,G17_4),(G25_3,G26_4))));
83	-963.6244229646379	-918.8428484591725	-44.781574505465386	1.0811823541549628	1.6267236824390992	0.45524077407988495	0.7820576713300943	(((G0_0,(G30_2,(G31_3,G32_4))),(((G10_4,G9_3),(G6_3,G7_4)),(G19_3,G20_4))),(((G14_1,(G15_2,G24_2)),((G1_1,G2_1),G4_1)),((G16_3,G17_4),(G25_3,G26_4))));
84	-963.6189012102546	-918.813030285663	-44.805870924591694	1.0811823541549628	1.6267236824390992	0.45524077407988495	0.7820576713300943	(((G0_0,(G30_2,(G31_3,G32_4))),(((G10_4,G9_3),(G6_3,G7_4)),(G19_3,G20_4))),(((G14_1,(G15_2,G24_2)),((G1_1,G2_1),G4_1)),((G16_3,G17_4),(G25_3,G26_4))));
85	-963.6189012102546	-918.813030285663	-44.805870924591694	1.0811823541549628	1.6267236824390992	0.45524077407988495	0.7820576713300943	(((G0_0,(G30_2,(G31_3,G32_4))),(((G10_4,G9_3),(G6_3,G7_4)),(G19_3,G20_4))),(((G14_1,(G15_2,G24_2)),((G1_1,G2_1),G4_1)),((G16_3,G17_4),(G25_3,G26_4))));
86	-965.5789366061857	-918.841344745567	-46.7375918606187	1.0811823541549628	1.6267236824390992	0.45524077407988495	0.7820576713300943	(((G0_0,(G30_2,(G31_3,G32_4))),(((G10_4,G9_3),(G6_3,G7_4)),(G19_3,G20_4))),(((G14_1,(G15_2,G24_2)),((G1_1,G2_1),G4_1)),((G16_3,G17_4),(G25_3,G26_4))));
87	-965.5789366061857	-918.841344745567	-46.7375918606187	1.0811823541549628	1.6267236824390992	0.45524077407988495	0.7820576713300943	(((G0_0,(G30_2,(G31_3,G32_4))),(((G10_4,G9_3),(G6_3,G7_4)),(G19_3,G20_4))),(((G14_1,(G15_2,G24_2)),((G1_1,G2_1),G4_1)),((G16_3,G17_4),(G25_3,G26_4))));
88	-965.5791845724741	-918.841344745567	-46.73783982690708	1.0811823541549628	1.6267236824390992	0.45542210498810926	0.7820576713300943	(((G0_0,(G30_2,(G31_3,G32_4))),(((G10_4,G9_3),(G6_3,G7_4)),(G19_3,G20_4))),(((G14_1,(G15_2,G24_2)),((G1_1,G2_1),G4_1)),((G16_3,G17_4),(G25_3,G26_4))));
89	-965.8764434159697	-918.7752126039034	-47.10123081206634	1.0811823541549628	1.6267236824390992	0.45542210498810926	0.7820576713300943	(((G0_0,(G30_2,(G31_3,G32_4))),(((G10_4,G9_3),(G6_3,G7_4)),(G19_3,G20_4))),(((G14_1,(G15_2,G24_2)),((G1_1,G2_1),G4_1)),((G16_3,G17_4),(G25_3,G26_4))));
90	-965.8764434159697	-918.7752126039034	-47.10123081206634	1.0811823541549628	1.6267236824390992	0.45542210498810926	0.7820576713300943	(((G0_0,(G30_2,(G31_3,G32_4))),(((G10_4,G9_3),(G6_3,G7_4)),(G19_3,G20_4))),(((G14_1,(G15_2,G24_2)),((G1_1,G2_1),G4_1)),((G16_3,G17_4),(G25_3,G26_4))));
91	-965.8764434159697	-918.7752126039034	-47.10123081206634	1.0811823541549628	1.6267236824390992	0.45542210498810926	0.7820576713300943	(((G0_0,(G30_2,(G31_3,G32_4))),(((G10_4,G9_3),(G6_3,G7_4)),(G19_3,G20_4))),(((G14_1,(G15_2,G24_2)),((G1_1,G2_1),G4_1)),((G16_3,G17_4),(G25_3,G26_4))));
92	-965.8764434159697	-918.7752126039034	-47.10123081206634	1.0811823541549628	1.6267236824390992	0.45542210498810926	0.7820576713300943	(((G0_0,(G30_2,(G31_3,G32_4))),(((G10_4,G9_3),(G6_3,G7_4)),(G19_3,G20_4))),(((G14_1,(G15_2,G24_2)),((G1_1,G2_1),G4_1)),((G16_3,G17_4),(G25_3,G26_4))));
93	-965.8764434159697	-918.7752126039034	-47.10123081206634	1.0811823541549628	1.6267236824390992	0.45542210498810926	0.7820576713300943	(((G0_0,(G30_2,(G31_3,G32_4))),(((G10_4,G9_3),(G6_3,G7_4)),(G19_3,G20_4))),(((G14_1,(G15_2,G24_2)),((G1_1,G2_1),G4_1)),((G16_3,G17_4),(G25_3,G26_4))));
94	-966.1647630515953	-918.7752126039034	-47.38955044769188	1.0811823541549628	1.6267236824390992	0.5035757963129048	0.7820576713300943	(((G0_0,(G30_2,(G31_3,G32_4))),(((G10_4,G9_3),(G6_3,G7_4)),(G19_3,G20_4))),(((G14_1,(G15_2,G24_2)),((G1_1,G2_1),G4_1)),((G16_3,G17_4),(G25_3,G26_4))));
95	-966.1647630515953	-918.7752126039034	-47.38955044769188	1.0811823541549628	1.6267236824390992	0.5035757963129048	0.7820576713300943	(((G0_0,(G30_2,(G31_3,G32_4))),(((G10_4,G9_3),(G6_3,G7_4)),(G19_3,G20_4))),(((G14_1,(G15_2,G24_2)),((G1_1,G2_1),G4_1)),((G16_3,G17_4),(G25_3,G26_4))));
96	-966.1647630515953	-918.7752126039034	-47.38955044769188	1.0811823541549628	1.6267236824390992	0.5035757963129048	0.7820576713300943	(((G0_0,(G30_2,(G31_3,G32_4))),(((G10_4,G9_3),(G6_3,G7_4)),(G19_3,G20_4))),(((G14_1,(G15_2,G24_2)),((G1_1,G2_1),G4_1)),((G16_3,G17_4),(G25_3,G26_4))));
97	-966.1647630515953	-918.7752126039034	-47.38955044769188	1.0811823541549628	1.6267236824390992	0.5035757963129048	0.7820576713300943	(((G0_0,(G30_2,(G31_3,G32_4))),(((G10_4,G9_3),(G6_3,G7_4)),(G19_3,G20_4))),(((G14_1,(G15_2,G24_2)),((G1_1,G2_1),G4_1)),((G16_3,G17_4),(G25_3,G26_4))));
98	-966.0234097600784	-918.7235429358266	-47.29986682425178	1.0811823541549628	1.6267236824390992	0.5035757963129048	0.7820576713300943	(((G0_0,(G30_2,(G31_3,G32_4))),(((G10_4,G9_3),(G6_3,G7_4)),(G19_3,G20_4))),(((G14_1,(G15_2,G24_2)),((G1_1,G2_1),G4_1)),((G16_3,G17_4),(G25_3,G26_4))));
99	-966.0234097600784	-918.7235429358266	-47.29986682425178	1.0811823541549628	1.6267236824390992	0.5035757963129048	0.7820576713300943	(((G0_0,(G30_2,(G31_3,G32_4))),(((G10_4,G9_3),(G6_3,G7_4)),(G19_3,G20_4))),(((G14_1,(G15_2,G24_2)),((G1_1,G2_1),G4_1)),((G16_3,G17_4),(G25_3,G26_4))));
100	-966.0234097600784	-918.7235429358266	-47.29986682425178	1.0811823541549628	1.6267236824390992	0.5035757963129048	0.7820576713300943	(((G0_0,(G30_2,(G31_3,G32_4))),(((G10_4,G9_3),(G6_3,G7_4)),(G19_3,G20_4))),(((G14_1,(G15_2,G24_2)),((G1_1,G2_1),G4_1)),((G16_3,G17_4),(G25_3,G26_4))));
